AWSTATS DATA FILE 7.0 (build 1.971)
# If you remove this file, all statistics for date 201711 will be lost/reset.
# Last config file used to build this data file was /etc/awstats/awstats.autoslon.com.conf.

# Position (offset in bytes) in this file for beginning of each section for
# direct I/O access. If you made changes somewhere in this file, you should
# also remove completely the MAP section (AWStats will rewrite it at next
# update).
BEGIN_MAP 27
POS_GENERAL 1992                
POS_TIME 2675                
POS_VISITOR 14217               
POS_DAY 25192               
POS_DOMAIN 3631                
POS_LOGIN 3865                
POS_ROBOT 4020                
POS_WORMS 4725                
POS_EMAILSENDER 4856                
POS_EMAILRECEIVER 4999                
POS_SESSION 26053               
POS_SIDER 26257               
POS_FILETYPES 5134                
POS_DOWNLOADS 5545                
POS_OS 5617                
POS_BROWSER 5758                
POS_SCREENSIZE 6926                
POS_UNKNOWNREFERER 7000                
POS_UNKNOWNREFERERBROWSER 7248                
POS_ORIGIN 7381                
POS_SEREFERRALS 7524                
POS_PAGEREFS 7696                
POS_SEARCHWORDS 7964                
POS_KEYWORDS 8116                
POS_MISC 2337                
POS_ERRORS 8175                
POS_CLUSTER 3721                
POS_SIDER_404 8355                
END_MAP

# LastLine    = Date of last record processed - Last record line number in last log - Last record offset in last log - Last record signature value
# FirstTime   = Date of first visit for history file
# LastTime    = Date of last visit for history file
# LastUpdate  = Date of last update - Nb of parsed records - Nb of parsed old records - Nb of parsed new records - Nb of parsed corrupted - Nb of parsed dropped
# TotalVisits = Number of visits
# TotalUnique = Number of unique visitors
# MonthHostsKnown   = Number of hosts known
# MonthHostsUnKnown = Number of hosts unknown
BEGIN_GENERAL 8
LastLine 20171201000611 253 89806 5159436642939
FirstTime 20171101021112
LastTime 20171130193733
LastUpdate 20171201040830 253 0 252 0 0
TotalVisits 383                 
TotalUnique 222                 
MonthHostsKnown 0                   
MonthHostsUnknown 296                 
END_GENERAL

# Misc ID - Pages - Hits - Bandwidth
BEGIN_MISC 10
QuickTimeSupport 0 0 0
JavaEnabled 0 0 0
JavascriptDisabled 0 0 0
PDFSupport 0 0 0
WindowsMediaPlayerSupport 0 0 0
AddToFavourites 0 129 0
RealPlayerSupport 0 0 0
TotalMisc 0 0 0
DirectorSupport 0 0 0
FlashSupport 0 0 0
END_MISC

# Hour - Pages - Hits - Bandwidth - Not viewed Pages - Not viewed Hits - Not viewed Bandwidth
BEGIN_TIME 24
0 32 163 8649336 455 565 19572201
1 65 311 18172564 366 442 14844830
2 90 365 20109212 301 393 16751550
3 69 367 19026021 228 313 12190945
4 94 418 22572949 202 309 10431727
5 23 120 6286993 172 246 9493849
6 21 154 8930276 164 220 7859883
7 15 69 3983955 236 300 10203539
8 34 120 6981790 183 240 8488413
9 35 111 6334255 1356 1422 84865169
10 23 109 6289454 1401 1468 86815792
11 21 67 3665986 930 1012 61668199
12 65 222 34373704 180 239 8542929
13 87 261 27790033 195 277 8886240
14 36 101 6082185 199 267 8925858
15 22 68 3967868 206 243 8504905
16 21 64 3966016 231 323 14131203
17 54 229 8146116 169 239 9423352
18 24 88 4977893 173 232 8242202
19 66 188 9652051 224 302 10534481
20 149 307 35240183 226 335 12599443
21 78 257 12595992 223 270 8068213
22 40 108 6056958 247 308 10542863
23 41 137 7027826 405 541 21821056
END_TIME

# Domain - Pages - Hits - Bandwidth
# The 10 first Pages must be first (order not required for others)
BEGIN_DOMAIN 1
ip 1205 4404 290879616
END_DOMAIN

# Cluster ID - Pages - Hits - Bandwidth
BEGIN_CLUSTER 0
END_CLUSTER

# Login - Pages - Hits - Bandwidth - Last visit
# The 10 first Pages must be first (order not required for others)
BEGIN_LOGIN 0
END_LOGIN

# Robot ID - Hits - Bandwidth - Last visit - Hits on robots.txt
# The 10 first Hits must be first (order not required for others)
BEGIN_ROBOT 15
crawl 3232 205618557 20171119070516 6
bot[\s_+:,\.\;\/\\-] 1422 101214403 20171130233848 27
yandex 1322 77177091 20171130230905 148
googlebot 293 15310682 20171130192341 44
baiduspider 60 3226596 20171130191632 4
unknown 23 6025 20171126040620 23
no_user_agent 19 1199022 20171129083512 0
spider 11 694164 20171129200339 0
ia_archiver 6 131568 20171129060831 3
favicon 5 315530 20171130133944 0
python 2 2220 20171114184454 0
surveybot 4 126736 20171119002122 2
archive\.org_bot 4 1052 20171121121413 4
mail\.ru 4 126736 20171120200536 2
netcraft 1 63108 20171111144721 0
END_ROBOT

# Worm ID - Hits - Bandwidth - Last visit
# The 5 first Hits must be first (order not required for others)
BEGIN_WORMS 0
END_WORMS

# EMail - Hits - Bandwidth - Last visit
# The 20 first Hits must be first (order not required for others)
BEGIN_EMAILSENDER 0
END_EMAILSENDER

# EMail - Hits - Bandwidth - Last visit
# The 20 first hits must be first (order not required for others)
BEGIN_EMAILRECEIVER 0
END_EMAILRECEIVER

# Files type - Hits - Bandwidth - Bandwidth without compression - Bandwidth after compression
BEGIN_FILETYPES 18
css 523 28870435 0 0
ttf 7 228938 0 0
woff2 6 432690 0 0
_80 1 51836 0 0
woff 288 5040060 0 0
php 37 3412101 0 0
html 252 15539303 0 0
jpg 4 47680 0 0
_29 2 103468 0 0
_13 4 276756 0 0
eot 160 4834560 0 0
png 666 2991607 0 0
__80 3 160684 0 0
js 1062 113868012 0 0
jpeg 755 66418374 0 0
Unknown 445 48205900 0 0
gif 3 2892 0 0
svg 186 394320 0 0
END_FILETYPES

# Downloads - Hits - Bandwidth
BEGIN_DOWNLOADS 1
/robots.txt 263 0 69145
END_DOWNLOADS

# OS ID - Hits
BEGIN_OS 9
linuxandroid 499
winxp 144
winnt 726
winvista 412
linux 36
win7 1786
macosx 758
win2003 11
Unknown 32
END_OS

# Browser ID - Hits
BEGIN_BROWSER 62
safari7.0 17
msie6.0 21
firefox57.0 155
chrome56.2.7832.1660 1
chrome52.0.2743.116 47
safari11.0 229
safari10.1 11
chrome34.0.1847.137 1
firefox26.0 2
firefox52.0 51
firefox18.0 1
chrome39.0.2171.95 1
chrome56.0.2924.87 83
chrome36.0.1985.125 9
firefox49.0 28
chrome58.0.3029.110 24
iphone 302
msie8.0 263
chrome61.0.3163.100 323
msie7.0 11
chrome17.0.963.46 1
chrome50.0.2661.102 17
firefox40.1 1
chrome37.0.2062.120 4
chrome10.0.648.204 4
chrome58.0.3029.96 8
chrome62.0.3202.89 133
msie9.0 3
chrome49.0.2623.112 23
Unknown 6
chrome59.0.3071.115 2
firefox32.0 3
firefox53.0 1
chrome55.0.2883.87 1
firefox17.0 1
firefox40.0 11
chrome37.0.2049.0 17
safari10.0 51
firefox58.0 113
chrome62.0.3202.94 550
chrome51.0.2704.79 1
chrome49.0.2623.75 1
firefox56.0 160
chrome38.0.2125.102 50
firefox45.0 6
firefox47.0 9
chrome60.0.3112.113 161
chrome62.0.3202.84 92
chrome45.0.2454.94 44
safari9.0 21
mozilla 664
chrome45.0.2454.101 4
chrome51.0.2704.106 136
netscape5.0 4
chrome57.0.2987.133 1
msie10.0 227
chrome44.0.2403.89 1
chrome46.0.2490.86 1
chrome13.0.782.41 1
chrome61.0.3163.98 149
safari 111
chrome62.0.3202.75 30
END_BROWSER

# Screen size - Hits
BEGIN_SCREENSIZE 0
END_SCREENSIZE

# Unknown referer OS - Last visit date
BEGIN_UNKNOWNREFERER 4
gobyus 20171123083803
Mozilla/5.0_(compatible;_Dataprovider.com;) 20171124021125
Magic_Browser 20171104034218
Mozilla/5.0_(compatible;_ips-agent) 20171110202252
END_UNKNOWNREFERER

# Unknown referer Browser - Last visit date
BEGIN_UNKNOWNREFERERBROWSER 2
gobyus 20171123083803
Magic_Browser 20171104034218
END_UNKNOWNREFERERBROWSER

# Origin - Pages - Hits 
BEGIN_ORIGIN 6
From0 160 191
From1 3 3
From2 160 161
From3 7 7
From4 875 4042
From5 0 0
END_ORIGIN

# Search engine referers ID - Pages - Hits
BEGIN_SEREFERRALS 2
google 125 126
yandex 35 35
END_SEREFERRALS

# External page referers - Pages - Hits
# The 10 first Pages must be first (order not required for others)
BEGIN_PAGEREFS 4
http://burger-imperia.com 4 4
http://www.phpdevops.com 1 1
https://yandex.ua/clck/jsredir 1 1
http://m.facebook.com 1 1
END_PAGEREFS

# Search keyphrases - Number of search
# The 10 first number of search must be first (order not required for others)
BEGIN_SEARCHWORDS 0
END_SEARCHWORDS

# Search keywords - Number of search
# The 10 first number of search must be first (order not required for others)
BEGIN_KEYWORDS 0
END_KEYWORDS

# Errors - Hits - Bandwidth
BEGIN_ERRORS 8
403 3 1131
503 40 20360
302 19 26273
405 6 28824
500 5 6308
301 1897 1581028
404 1881 66381419
504 1 420
END_ERRORS

# URL with 404 errors - Hits - Last URL referer
BEGIN_SIDER_404 95
/blog/wp-includes/wlwmanifest.xml 1 -
/sitemap.xml 2 -
/wp-content/themes/amoveo/includes/fileuploader/upload_handler.php 1 http://autoslon.com/wp-content/themes/amoveo/includes/fileuploader/upload_handler.php
/product/renault_kangoo_c_1997-2003_g_v__korotkiy_22 1 -
/covers 1437 -
/admin.php 1 -
/product/tovar_5 5 -
/site/wp-includes/wlwmanifest.xml 1 -
/product/gaz_3110_shirokiy_def_okon_ct_4 1 -
/wp-content/plugins/Tevolution/tmplconnector/monetize/templatic-custom_fields/css/jquery.lightbox.css 2 http://autoslon.com/wp-content/plugins/Tevolution/tmplconnector/monetize/templatic-custom_fields/css/jquery.lightbox.css
/img/textile/1_daewoo_lanos.jpg 2 -
/page/.cart-popup 3 -
/product/audi_a4_kuzov_8e_v7_s_2005-2008_g_v__33 1 -
/wp-content/plugins/revslider/temp 2 http://autoslon.com/wp-content/plugins/revslider/temp/
/product/img/favicon/apple-touch-icon-114x114.png 1 -
/xmlrpc.php 4 -
/.cart-popup 6 -
/news/img/favicon/apple-touch-icon-72x72.png 7 -
/categories/img/favicon/apple-touch-icon.png 5 -
/manager/media/script/mootools/mootools.js 1 -
/product/vaz_ugolki_kalina_h_b_def_okon_ct_42 1 -
/product/tovar_6 1 -
/wp-content/themes/atom/uploadify/uploadify.css 2 http://www.autoslon.com/wp-content/themes/atom/uploadify/uploadify.css
/product/vaz_2131_niva_5-ti_dv__shirokiy_def_okon_ct_98 1 -
/product/tovar_8 5 -
/categories/img/favicon/apple-touch-icon-72x72.png 5 -
/img/favicon/apple-touch-icon.png 37 -
/path/to/image.jpg 9 -
/product/audi_a4_kuzov_8b_8k_s_2008%C3%A2%E2%82%AC%E2%80%9C2011_g_v__11 3 -
/img/covers/rezina-salon/1hundai_santa.jpg 1 -
/wp-content/themes/famous/style.css 1 http://www.autoslon.com/wp-content/themes/famous/style.css
/product/vaz_21314_niva_5-ti_dv__2009_shirokiy_def_okon_ct_74 1 -
/img/covers/poli-salon/1renault_duster1.jpg 1 -
/product/tovar_4 2 -
/news/path/to/image.jpg 1 -
/wp-content/plugins/wp-easy-gallery-pro/admin/php.php 2 http://www.autoslon.com/wp-content/plugins/wp-easy-gallery-pro/admin/php.php
/wp-login.php 5 http://autoslon.com/wp-login.php
/product/tovar_7 4 -
/categories/img/favicon/apple-touch-icon-114x114.png 7 -
/wp-content/plugins/wp-vertical-gallery/readme.txt 1 http://autoslon.com/wp-content/plugins/wp-vertical-gallery/readme.txt
/dumper.php 2 -
/product/acura_tsx_c_2006%C3%A2%E2%82%AC%E2%80%9C2008_g_v__7 4 -
/news/img/favicon/apple-touch-icon-114x114.png 7 -
/product/vaz_priora_universal_shirokiy_def_okon_ct_22 1 -
/img/kombi/1_Mitsubishi_outlander.jpg 9 -
/2cfBdaEQnZM1zE62whEhaTW9 1 -
/product/tovar_2 4 -
/product/vaz_ugolki_priora_h_k_def_okon_ct_61 1 -
/product/vaz_ugolki_kalina_universal_def_okon_ct_95 1 -
/categories/path/to/image.jpg 5 -
/wp-content/plugins/reflex-gallery/admin/scripts/FileUploader/php.php 2 http://www.autoslon.com/wp-content/plugins/reflex-gallery/admin/scripts/FileUploader/php.php
/product/tovar_3 1 -
/page/img/favicon/apple-touch-icon-72x72.png 1 http://autoslon.com/page/about
/page/img/favicon/apple-touch-icon-114x114.png 1 http://autoslon.com/page/about
/krd.txt 2 -
/categories/.cart-popup 5 -
/product/vaz_21218_niva_bronto_3-h_dv__shirokiy_def_okon_ct_41 1 -
/wp-includes/wlwmanifest.xml 1 -
/wp-content/plugins/complete-gallery-manager/frames/upload-images.php 1 http://www.autoslon.com/wp-content/plugins/complete-gallery-manager/frames/upload-images.php
/wp-content/themes/cameleon/includes/fileuploader/upload_handler.php 1 http://autoslon.com/wp-content/themes/cameleon/includes/fileuploader/upload_handler.php
/plugins/reflex-gallery/admin/scripts/FileUploader/php.php 1 http://www.autoslon.com/plugins/reflex-gallery/admin/scripts/FileUploader/php.php
/wp-content/plugins/wp-crm/third-party/uploadify/uploadify.css 2 http://www.autoslon.com/wp-content/plugins/wp-crm/third-party/uploadify/uploadify.css
/product/acura_mdx_s_2001%C3%A2%E2%82%AC%E2%80%9C2006_g_v__43 4 -
/connectors/resource/index.php 1 -
/cms/wp-includes/wlwmanifest.xml 1 -
/product/audi_80_b3_b4_c_1986-1996_g_v__13 1 -
/product/ford_fusion_c_2003_g_v_korotkaya_31 1 -
/product/acura_csx_s_2005%C3%A2%E2%82%AC%E2%80%9C2009_g_v__8 4 -
/pV345S6gKLSi00QNRK2su5HrizgjI 1 -
/categories/search 1 -
/wp-content/themes/ut-strange/addpress/css/style.css 2 http://www.autoslon.com/wp-content/themes/ut-strange/addpress/css/style.css
/product/tovar_1 2 -
/wp-content/plugins/wp-mailinglist/vendors/uploadify/upload.php 1 http://www.autoslon.com/wp-content/plugins/wp-mailinglist/vendors/uploadify/upload.php
/wp/wp-includes/wlwmanifest.xml 1 -
/product/.cart-popup 5 -
/dumper/dumper.php 2 -
/administrator/index.php 1 -
/mats 70 http://yandex.ru/clck/jsredir
/wordpress/wp-includes/wlwmanifest.xml 1 -
/wp-content/themes/evolve/js/back-end/libraries/fileuploader/upload_handler.php 2 http://www.autoslon.com/wp-content/themes/evolve/js/back-end/libraries/fileuploader/upload_handler.php
/wp-content/plugins/photo-gallery/filemanager/UploadHandler.php 2 http://www.autoslon.com/wp-content/plugins/photo-gallery/filemanager/UploadHandler.php
/product/acura_el_s_2001%C3%A2%E2%82%AC%E2%80%9C2005_g_v__19 4 -
/news/.cart-popup 6 -
/categories/deflectors 2 -
/manager/assets/modext/core/modx.js 2 -
/page/img/favicon/apple-touch-icon.png 1 http://autoslon.com/page/about
/phpmyadmin 1 -
/img/favicon/apple-touch-icon-72x72.png 39 -
/assets/images/B2IVMpgHfE.jpeg 35 http://autoslon.com/admin/products/edit/1
/categories/deflectors2 6 -
/img/covers/poli-salon/1mazda_cx5.jpg 1 -
/news/img/favicon/apple-touch-icon.png 7 -
/product/skoda_octavia_iv_s_2013_g_v___74 1 http://yandex.ru/clck/jsredir
/wp-cros.php 4 -
/img/favicon/apple-touch-icon-114x114.png 41 -
END_SIDER_404

# Host - Pages - Hits - Bandwidth - Last visit date - [Start date of last visit] - [Last page of last visit]
# [Start date of last visit] and [Last page of last visit] are saved only if session is not finished
# The 10 first Hits must be first (order not required for others)
BEGIN_VISITOR 296
31.202.22.198 163 421 36259565 20171122175752
82.117.238.9 53 130 21780068 20171129142743
66.102.8.42 43 214 9617722 20171130013123
66.102.8.44 38 183 8558891 20171130013122
37.57.32.163 36 143 15918799 20171128131958
66.102.8.46 35 194 12159909 20171130013118
91.213.182.11 32 48 2517835 20171123100206
93.178.255.42 29 48 2415623 20171127202633
185.127.27.164 25 78 15611473 20171121122730
176.116.78.3 23 40 1836048 20171109190119
128.199.63.237 1 11 602965 20171105171949
213.5.192.195 12 29 1433304 20171105212636
217.12.213.44 18 36 1690027 20171123131006
90.154.93.131 2 5 511013 20171111010949
128.68.101.97 2 2 60432 20171123100442
109.252.90.236 0 3 453297 
54.219.178.100 3 3 189320 20171126151432
128.69.152.12 3 9 658173 20171105021126
93.80.152.161 4 10 721279 20171122042312
176.193.113.111 4 10 721285 20171126010436
109.63.205.224 0 11 596497 
217.69.143.217 1 1 63106 20171110091122
5.228.73.205 1 16 880615 20171106013230
120.92.32.177 1 1 63106 20171122203023
46.211.100.17 0 2 79627 
90.154.93.19 1 1 24426 20171125042653
213.111.192.194 3 19 920661 20171103201155
91.217.67.84 10 22 970888 20171114114824
95.84.248.187 0 2 17020 
95.220.126.52 0 1 693 
176.15.194.186 1 2 126152 20171111010949
131.253.27.98 2 2 60044 20171121121240
131.253.27.38 0 1 13690 
188.68.1.127 1 1 38927 20171126191304
109.63.241.173 0 11 596497 
89.178.5.188 0 10 168090 
128.69.152.114 3 8 656548 20171111213105
95.27.248.182 0 1 4579 
188.244.47.215 6 18 1316346 20171111011823
185.213.210.128 5 5 315536 20171124081202
163.172.139.161 1 1 63108 20171123201317
66.102.6.106 11 37 1156949 20171103064131
188.255.59.142 0 11 596497 
91.201.0.232 1 13 706770 20171128185551
209.95.191.31 1 1 63108 20171110063430
180.153.236.19 2 2 126210 20171105235502
195.72.158.139 3 17 911505 20171102190528
66.102.9.138 1 2 154401 20171120000526
66.102.6.216 7 46 1796431 20171113021121
95.220.78.182 1 6 469975 20171109073617
66.102.6.76 3 19 484503 20171117034248
95.220.208.34 0 11 596497 
95.181.182.250 1 1 58147 20171107154950
95.181.177.146 1 1 36367 20171117210351
93.80.36.249 0 1 693 
46.243.173.31 1 1 56011 20171109125517
176.8.89.80 2 2 126150 20171129051509
95.220.110.208 4 10 710020 20171105161725
192.99.1.183 1 1 63116 20171119110815
176.195.83.107 2 8 633747 20171105013049
54.213.114.229 1 1 63112 20171104231112
66.102.6.233 4 19 545045 20171110011420
91.234.41.211 12 27 1422088 20171114132059
106.120.162.110 3 17 911509 20171104065153
195.242.80.92 1 1 63108 20171104033159
65.55.210.88 0 2 153285 
46.229.166.195 3 17 940068 20171104181508
128.72.45.78 0 11 596497 
90.154.89.91 4 10 721277 20171126044345
142.4.218.236 17 17 832171 20171124021127
77.37.222.224 4 10 721275 20171123014232
5.101.220.102 1 1 51869 20171111034101
178.159.100.61 1 1 39587 20171117110650
5.101.220.80 1 1 58006 20171113192129
91.221.67.89 1 1 39527 20171120151954
131.253.25.183 0 2 58589 
5.188.219.229 1 1 39970 20171104195427
178.140.235.174 1 16 880603 20171111190037
165.227.6.129 1 11 602965 20171110130702
95.28.191.173 0 1 20315 
66.102.6.237 4 20 905838 20171110011420
77.37.136.182 3 9 658173 20171124221345
199.30.24.217 0 1 693 
128.72.107.149 3 9 658173 20171112074347
52.41.211.72 2 2 126218 20171102120216
37.187.78.81 1 1 63104 20171125042501
66.102.6.170 19 88 3947679 20171127044238
78.106.119.52 1 16 880607 20171126053256
37.52.100.217 1 11 602965 20171119122124
5.165.254.60 1 14 877906 20171117014725
46.188.44.137 3 9 658173 20171123014232
108.179.248.153 1 1 63036 20171120223356
188.123.101.16 3 3 65330 20171123083803
89.178.6.166 0 1 428407 
65.55.210.201 0 1 57469 
95.220.96.194 1 2 29001 20171105021123
95.84.183.224 0 11 596497 
176.193.185.145 3 7 691583 20171105021123
90.154.93.116 1 2 31721 20171130193732
109.252.75.87 0 1 2139338 
66.102.6.110 8 43 2628575 20171103064127
178.140.124.189 1 16 880607 20171114140701
46.183.144.25 1 1 63104 20171123210427
23.101.61.176 1 1 63104 20171111215409
176.193.125.71 4 10 710199 20171109161646
95.24.22.177 1 2 71489 20171123013210
79.133.106.154 1 1 51873 20171122061618
46.149.93.221 15 32 1589991 20171108194413
95.28.165.113 0 11 596497 
66.102.6.72 2 16 812007 20171106005239
199.30.25.167 0 1 54010 
199.30.24.55 0 1 13690 
109.63.138.161 0 6 573315 
66.249.88.59 2 6 195649 20171115041929
95.85.80.141 1 1 36098 20171109133614
2.50.150.111 3 17 911503 20171108221230
95.220.119.48 0 8 589105 
95.24.35.57 0 4 457876 
188.68.3.117 1 1 38277 20171115220025
128.72.15.188 0 10 594377 
188.255.16.224 4 10 721277 20171111025143
95.221.55.163 0 11 596497 
77.37.221.104 3 9 658173 20171114144220
66.249.88.20 14 79 3792553 20171124023015
5.165.44.76 0 11 596497 
131.253.25.203 0 3 122778 
109.252.109.97 0 1 20315 
31.41.135.127 11 77 4110874 20171130162947
188.32.79.137 0 11 596497 
95.181.217.191 1 1 69227 20171115190905
109.63.254.132 3 9 658173 20171102105002
66.249.88.60 2 10 655472 20171115041929
94.244.151.39 8 20 1047565 20171117214057
120.92.11.176 1 1 63116 20171122194021
46.161.61.21 1 1 39982 20171105170217
199.30.24.99 0 1 3457 
77.37.220.207 0 22 1192994 
194.44.140.47 4 10 73968 20171128203723
66.102.9.142 1 7 538165 20171120000443
5.164.179.201 3 9 658173 20171108082100
83.217.214.72 0 11 596497 
146.185.223.221 1 1 63106 20171123213348
212.55.83.232 11 26 1319126 20171129170249
95.220.114.75 1 2 53605 20171111213105
112.29.175.198 1 1 63106 20171115003736
172.82.185.210 6 6 378636 20171114054550
144.76.159.106 1 1 63052 20171122141837
46.242.79.111 1 13 706882 20171130191328
176.77.4.65 0 11 596497 
37.144.46.130 1 16 880607 20171124082939
176.14.227.205 1 16 880609 20171122090428
5.228.129.60 0 2 21008 
178.159.97.251 1 1 39721 20171103090841
37.144.45.133 3 9 658173 20171119172058
54.161.83.208 1 1 63106 20171110083035
220.225.33.109 1 1 63112 20171101101717
199.30.25.163 0 2 436788 
188.32.244.86 1 12 632549 20171105003638
37.110.97.85 4 10 721283 20171125220849
37.112.34.42 0 1 2120 
209.95.165.223 1 1 63110 20171102121117
95.27.255.47 4 10 709908 20171113094156
109.63.202.216 1 16 880605 20171101060948
66.102.6.220 12 59 2690736 20171114102847
80.93.187.232 1 1 63106 20171127131010
134.249.134.21 11 27 1350206 20171104224625
37.144.50.31 3 9 658173 20171113070724
131.253.27.5 0 1 8381 
208.94.230.146 1 1 63104 20171118013124
5.167.123.138 2 8 633747 20171125042652
45.32.187.191 2 2 126218 20171125043514
46.188.88.244 0 11 596497 
95.220.99.231 0 11 596497 
131.253.25.170 0 1 693 
163.172.4.153 4 4 252430 20171129120330
109.173.54.206 1 5 189355 20171120205217
178.33.39.197 1 1 63106 20171122222914
199.30.24.81 0 1 4579 
79.110.18.91 1 1 51867 20171102211453
66.102.6.235 3 16 1339244 20171109050252
66.102.6.74 6 20 1493609 20171117034248
95.84.128.167 0 1 8381 
131.253.25.176 0 2 494344 
195.19.39.124 0 1 65937 
131.253.27.19 0 1 57469 
188.32.249.96 4 10 721279 20171117014625
38.100.21.69 9 11 557893 20171109194635
158.46.200.99 1 1 63106 20171112115513
37.145.73.87 0 22 1192994 
131.253.25.146 0 1 20315 
95.108.133.199 1 11 602965 20171105145325
37.110.70.90 1 5 610379 20171111213101
95.85.80.192 1 1 56743 20171111185131
77.122.89.137 6 34 1809909 20171126091553
128.72.76.67 4 10 721281 20171115153133
46.33.33.125 3 13 724598 20171129190717
185.156.174.135 8 8 324173 20171124131427
95.220.88.93 0 1 4579 
95.24.21.193 0 2 2813 
95.220.73.197 0 2 119321 
109.63.254.17 1 3 444392 20171120205217
66.249.88.14 18 93 4808858 20171125035334
188.166.19.94 9 24 1222706 20171109195532
128.68.138.65 3 9 658173 20171118153724
176.193.158.79 2 7 633054 20171115083146
46.188.22.171 3 9 658173 20171116024846
5.189.207.247 1 1 36031 20171116001338
193.93.193.122 1 1 36797 20171109062211
109.63.246.234 3 9 658173 20171128142616
195.144.199.77 3 9 667902 20171128125721
178.140.12.112 3 9 658173 20171103185309
220.181.132.180 3 9 667904 20171104065123
131.253.25.248 0 2 40659 
69.58.178.57 10 10 451841 20171110202252
158.46.200.174 1 1 63100 20171118221624
78.106.114.216 3 4 107967 20171106233632
128.69.217.153 3 9 658173 20171129114754
193.254.196.173 2 2 64153 20171130080635
66.102.9.140 2 7 178963 20171120000443
94.180.160.133 0 11 596497 
199.30.25.233 0 1 114746 
104.45.18.178 2 2 126214 20171113091756
178.136.235.202 7 22 1148601 20171103123348
178.150.157.108 8 50 2464543 20171115002115
37.204.48.174 3 9 658173 20171117014629
128.68.47.244 3 9 658173 20171115045046
2.92.194.202 0 1 693 
185.14.195.201 1 1 63102 20171120153148
180.153.236.173 1 1 63108 20171105043425
37.54.88.226 16 32 1513145 20171120230423
188.170.83.249 3 17 911501 20171115103541
65.55.210.161 0 1 65937 
46.188.29.95 3 8 637858 20171107064154
95.181.177.202 1 1 36060 20171104050619
95.24.38.108 0 11 596497 
109.63.149.101 0 11 596497 
77.41.30.194 0 11 596497 
176.37.171.56 1 1 63110 20171103230144
165.227.207.24 1 1 63112 20171106161121
109.63.192.155 0 11 596497 
188.32.139.42 1 15 1097162 20171120183103
66.102.6.174 19 91 3958882 20171130031238
66.102.6.172 13 77 5339793 20171130031238
65.19.167.132 1 1 63104 20171124053922
52.53.129.36 1 1 63106 20171129133711
91.234.199.70 1 11 602965 20171114143305
178.33.54.161 1 1 63110 20171113082026
66.249.88.58 0 3 62042 
199.30.25.63 0 1 20315 
37.204.50.137 1 6 602026 20171106233632
109.63.231.120 0 2 24890 
199.30.25.98 0 1 4575 
109.185.177.53 7 17 826337 20171111080714
128.69.219.81 2 7 626452 20171130193733
89.178.230.103 0 9 473374 
209.95.189.87 1 1 63116 20171126021027
188.226.220.27 1 11 602965 20171125205123
176.125.39.67 1 7 36801 20171103190122
217.118.78.104 3 17 911507 20171118220217
178.92.193.162 4 14 711820 20171105133513
89.31.57.5 1 1 63110 20171124053649
95.24.90.139 0 1 114746 
188.32.132.1 4 10 721277 20171126083334
120.204.17.68 1 1 63102 20171122194035
185.112.82.49 3 3 142634 20171120151956
37.204.152.159 3 7 633283 20171117095258
95.220.94.196 3 9 658173 20171106060342
46.188.22.128 0 11 596497 
104.209.188.207 1 1 63116 20171111215236
213.183.51.161 1 1 63106 20171119045637
83.166.242.112 1 1 63100 20171129183554
144.76.31.136 1 1 63042 20171121001238
46.161.56.17 1 1 39744 20171115011242
188.32.129.200 4 10 721281 20171109161641
52.34.24.33 1 1 63112 20171104034218
149.202.93.127 1 1 63102 20171108221030
2.92.32.178 3 5 200297 20171127020438
37.73.210.200 7 21 1136629 20171108140930
178.140.113.178 0 10 576182 
128.72.212.252 3 9 658173 20171111025150
95.220.113.250 0 11 596497 
136.243.79.240 3 16 901533 20171113001158
46.242.112.113 0 11 596497 
128.69.217.63 3 8 543427 20171109172353
158.46.200.51 1 1 63102 20171106170128
46.73.120.174 0 11 596497 
66.102.6.218 10 52 3771978 20171114102847
66.102.6.108 4 32 1796374 20171103064130
79.111.93.129 1 13 707065 20171111190039
188.162.37.190 3 13 736797 20171128102357
66.249.88.17 19 84 4488375 20171125035333
188.32.176.116 3 8 653594 20171101041050
104.236.141.156 1 1 63104 20171123224038
91.242.41.113 4 10 721283 20171104084751
94.180.141.110 3 6 220612 20171120183108
95.220.68.30 2 3 215690 20171109073617
END_VISITOR

# Date - Pages - Hits - Bandwidth - Visits
BEGIN_DAY 30
20171101 24 151 8069264 14
20171102 23 86 4653617 10
20171103 36 164 8195419 19
20171104 30 97 5515933 11
20171105 47 172 9787711 19
20171106 20 112 6356470 13
20171107 23 91 5070774 11
20171108 39 144 7744374 9
20171109 74 198 10760634 18
20171110 25 104 5560292 11
20171111 80 261 15027795 23
20171112 15 87 4704386 7
20171113 26 120 6750816 12
20171114 135 351 38180958 17
20171115 28 125 7124661 14
20171116 14 71 3641611 5
20171117 32 141 8022165 12
20171118 20 95 5145616 12
20171119 17 88 4773988 10
20171120 62 230 10947085 18
20171121 57 226 32177371 7
20171122 51 213 7194080 15
20171123 70 154 8384720 15
20171124 42 118 6278137 14
20171125 21 116 6661694 10
20171126 29 110 6266505 14
20171127 46 140 9572707 10
20171128 16 80 3951642 6
20171129 83 228 27146845 14
20171130 20 131 7212346 13
END_DAY

# Session range - Number of visits
BEGIN_SESSION 6
5mn-15mn 8
2mn-5mn 12
30s-2mn 14
15mn-30mn 6
0s-30s 331
30mn-1h 12
END_SESSION

# URL - Pages - Bandwidth - Entry - Exit
# The 10 first Pages must be first (order not required for others)
BEGIN_SIDER 75
/ 250 15523240 200 94
/fonts/Rain/Rain.woff 175 4250124 31 118
/categories/covers 126 7120872 2 8
/fonts/MyFont/MyFont.woff 113 789936 37 47
/fonts/MyFont/MyFont.eot 80 912480 45 25
/fonts/Rain/Rain.eot 80 3922080 21 23
/admin/loadimages 74 211368 0 3
/categories/vse-avtomobili 36 1893461 1 5
/news/kak-vybrat-chehly-i-ostatsya-dovolnym-svoim-vyborom 19 754045 7 6
/wishlist/update 15 15989 1 13
/categories/hood_deflectors 4 224041 1 2
/myadmin/import.php 1 35854 0 0
/fonts/MyFont/MyFont.ttf 3 33714 1 0
/fonts/fontawesome-webfont.woff2 6 432690 0 1
/myadmin/tbl_replace.php 1 14157 0 0
/myadmin/export.php 1 2131754 0 1
/admin/pages/edit/1 1 13690 0 0
/admin/modules/settings/slideshow 1 19596 0 0
/admin/articles 1 17463 0 0
/admin/categories/edit/2 6 6564014 0 0
/product/audi_80_v_3_1986_1991rr_sedan_sp_%D1%96_sid_suc_2_p%D1%96dgol 1 52227 0 1
/myadmin/index.php 4 12956 0 0
/admin/settings 4 78490 0 1
/product/audi_a6_4f_c6_s_2005-2011_g.v._sedan_68 2 103692 2 1
/news/kak-vybrat-deflectory-dlya-okon-i-ostatsya-dovolnym-svoim-vyborom 2 79974 1 1
/myadmin/db_structure.php 3 338837 0 0
/myadmin/js/messages.php 5 35066 0 0
/myadmin/db_export.php 2 90744 0 0
/search 2 114446 0 0
/admin/users 1 13176 0 0
/product/audi_q7_s_2010_g.v._29 2 103468 2 1
/register 12 475488 2 5
/admin/modules 3 30320 0 0
/categories/mats 12 444093 3 2
/categories/visors 13 642839 2 2
/news/kak-vybrat-kovriki-v-salon-i-ostatsya-dovolnym-svoim-vyborom 5 198604 2 2
/myadmin/ 2 16063 0 0
/product/uaz_patriot_sport_shirokiy_def.okon_ct_86 1 51980 1 0
/admin/products 7 14222509 0 0
/admin/attributes 3 30467 0 0
/page/about 5 179973 1 1
/login 10 345157 1 2
/product/bmw_x3_f25_2010r___un%D1%96versal_airbag__sp_13_per_%D1%96_zadn_p%D1%96dlok_krila__5_p%D1%96dgol 1 52590 0 0
/admin/categories/edit/4665 1 1094103 0 0
/admin/attributes/edit/1 1 11463 0 0
/product/audi_a3_kuzov_8p_s_2004-2012_g.v._hb_5d_93 2 103746 1 1
/news/kak-vybrat-deflectory-kapota-i-ostatsya-dovolnym-svoim-vyborom 3 119850 1 1
/admin/reviews 1 15109 0 0
/myadmin/navigation.php 6 99080 0 0
/myadmin/tbl_change.php 1 28391 0 0
/product/audi_100_45kuzov_4a,c4_c_1990-1994_g.v.__80 3 160684 1 2
/product/zaz_tavriya_3-h_dv.1986-2007_shirokiy_def.okon_ct_44 2 104054 2 1
/checkout 3 109053 1 1
/news 8 311054 1 1
/product/gazel_next_def.okon_ct_27 1 51820 1 0
/product/audi_80_b3,b4_c_1986-1996_g.v._13 4 276756 1 1
/page/delivery 6 216356 1 1
/admin/products/edit/1 5 10954099 0 0
/page/contact 12 432166 3 2
/myadmin/sql.php 2 201762 0 1
/myadmin/phpmyadmin.css.php 6 180314 0 0
/admin/pages 2 24614 0 0
/product/vaz_priora_universal_def.okon_ct_80 1 51918 1 0
/admin/upload-products 2 25548 0 0
/admin/products/getattributevalues 3 3499 0 0
/product/vaz_ugolki_granta_2014_h_b,_liftbek_shirokiy_def.okon_ct_40 1 52108 1 0
/admin/orders 1 13113 0 0
/myadmin/main.php 2 97626 0 0
/fonts/Rain/Rain.ttf 4 195224 0 3
/admin 8 140888 1 0
/admin/categories 13 314545 1 0
/myadmin/db_import.php 1 19344 0 0
/product/bmw_5_serii_60_kuzov_s_2003_g.v._80 1 51836 1 0
/product/audi_a3_kuzov_8p_s_2004-2012_g.v._hb_3d_40 2 106230 1 1
/index.php 2 126216 0 2
END_SIDER
